[
  {
    "p1": [
      {
        "Gid": "5",
        "datatime": "2018-12-21 11:13:21.000000",
        "AirTemp": "23.5",
        "AirHumi": "23.5",
        "LandTemp": "23.5",
        "LandHumi": "23.5"
      },
      {
        "Gid": "6",
        "datatime": "2018-12-21 13:00:57.000000",
        "AirTemp": "31.2",
        "AirHumi": "58",
        "LandTemp": "20.7",
        "LandHumi": "54.5"
      },
      {
        "Gid": "7",
        "datatime": "2018-12-21 13:15:54.000000",
        "AirTemp": "29.8",
        "AirHumi": "61.5",
        "LandTemp": "20.7",
        "LandHumi": "54.7"
      },
      {
        "Gid": "8",
        "datatime": "2018-12-21 13:30:54.000000",
        "AirTemp": "28.5",
        "AirHumi": "65.4",
        "LandTemp": "20.8",
        "LandHumi": "54.6"
      },
      {
        "Gid": "9",
        "datatime": "2018-12-21 13:45:54.000000",
        "AirTemp": "27.1",
        "AirHumi": "68.4",
        "LandTemp": "20.9",
        "LandHumi": "54.6"
      }
    ],
    "p2": [
      {
        "Gid": "10",
        "datatime": "2018-12-21 14:00:54.000000",
        "AirTemp": "26.4",
        "AirHumi": "69.9",
        "LandTemp": "21",
        "LandHumi": "54.5"
      },
      {
        "Gid": "11",
        "datatime": "2018-12-21 14:15:52.000000",
        "AirTemp": "26.4",
        "AirHumi": "70.9",
        "LandTemp": "21",
        "LandHumi": "54.6"
      },
      {
        "Gid": "12",
        "datatime": "2018-12-21 14:30:50.000000",
        "AirTemp": "25.7",
        "AirHumi": "72.9",
        "LandTemp": "21.1",
        "LandHumi": "54.7"
      },
      {
        "Gid": "13",
        "datatime": "2018-12-21 14:45:49.000000",
        "AirTemp": "25.7",
        "AirHumi": "74.9",
        "LandTemp": "21.1",
        "LandHumi": "54.8"
      },
      {
        "Gid": "14",
        "datatime": "2018-12-21 15:00:49.000000",
        "AirTemp": "25",
        "AirHumi": "76.3",
        "LandTemp": "21.1",
        "LandHumi": "54.7"
      },
      {
        "Gid": "15",
        "datatime": "2018-12-21 15:15:51.000000",
        "AirTemp": "25",
        "AirHumi": "77.3",
        "LandTemp": "21.1",
        "LandHumi": "54.5"
      },
      {
        "Gid": "16",
        "datatime": "2018-12-21 15:30:51.000000",
        "AirTemp": "24.3",
        "AirHumi": "81.3",
        "LandTemp": "21.2",
        "LandHumi": "54.5"
      }
    ],
    "p3": [
      {
        "Gid": "17",
        "datatime": "2018-12-21 15:45:51.000000",
        "AirTemp": "23.6",
        "AirHumi": "85.3",
        "LandTemp": "21.2",
        "LandHumi": "54.5"
      },
      {
        "Gid": "18",
        "datatime": "2018-12-21 16:00:50.000000",
        "AirTemp": "22.9",
        "AirHumi": "86.8",
        "LandTemp": "21.2",
        "LandHumi": "54.6"
      },
      {
        "Gid": "19",
        "datatime": "2018-12-21 16:15:46.000000",
        "AirTemp": "22.9",
        "AirHumi": "87.8",
        "LandTemp": "21.2",
        "LandHumi": "54.6"
      },
      {
        "Gid": "20",
        "datatime": "2018-12-21 16:30:48.000000",
        "AirTemp": "22.2",
        "AirHumi": "89.7",
        "LandTemp": "21.2",
        "LandHumi": "54.7"
      },
      {
        "Gid": "21",
        "datatime": "2018-12-21 16:45:45.000000",
        "AirTemp": "21.5",
        "AirHumi": "90.2",
        "LandTemp": "21.2",
        "LandHumi": "54.6"
      }
    ]
  }
]
